GVPT 2020 Fall Method Workshop: Modelling
…
Use intuitive examples to highlight practical trade-offs

– Use Modelling Tools from Tidyverse Package

Tools that make data exploratory easier (know your data)

Work with pipes and seamlessly connect with data

R for Data Science, https://r4ds.had.co.nz/

Data Generating Process

Let's say we have the following dataset

## # A tibble: 500 x 3
##           y     D      X
##       <dbl> <dbl>  <dbl>
##  1   2.23       0  3.37 
##  2   8.24       0  2.66 
##  3  -0.0692     0 -0.329
##  4  -4.02       1 -4.03 
##  5   3.37       0  1.82 
##  6   4.60       1  1.83 
##  7  -6.00       1 -1.97 
##  8  -1.60       1  2.54 
##  9   9.39       1  4.31 
## 10 -16.2        0 -2.54 
## # ... with 490 more rows
…
mat$nn

##           Control Treated
## All           252     248
## Matched       213     248
## Unmatched      39       0
## Discarded       0       0

Example 2

### The new dataset
d_mat<-tibble(get_matches(mat,d));d_mat

## # A tibble: 461 x 5
##           y     D   Age Gender weight
##    <I<dbl>> <int> <dbl>  <dbl>  <dbl>
##  1    22.4      1    26      1 1     
##  2    32.9      0    21      0 0.354 
##  3    24.9      1    27      1 1     
##  4   -25.0      1    42      1 1     
##  5     6.69     0    33      0 0.455 
##  6   -43.7      0    44      0 0.0286
##  7   -73.8      0    50      1 0.477 
##  8    10.8      1    28      1 1     
##  9    -5.28     1    37      1 1     
## 10   -37.5      0    42      0 0.129 
## # ... with 451 more rows
…
Tools that make data exploratory easier (Know your data)

Modelr, Purrr, and Broom

– Modelr: integrating modelling and data with pipes

– purrr and broom: seamlessly connect data with many models

Modelr

library(tidyverse);library(modelr)
### read the dataset: media freedom, country-year
d_media<-read_csv("media.csv");d_media

## # A tibble: 3,145 x 7
##     year country media_score media_status population gdp_percapita
##    <dbl> <chr>         <dbl> <chr>             <dbl>         <dbl>
##  1  1993 United~          88 F             259919000        26465.
##  2  1994 United~          88 F             263126000        27777.
##  3  1995 United~          86 F             266278000        28782.
##  4  1996 United~          86 F             269394000        30068.
##  5  1997 United~          88 F             272657000        31573.
##  6  1998 United~          87 F             275854000        32949.
##  7  1999 United~          87 F             279040000        34621.
##  8  2000 United~          85 F             282162411        36450.
##  9  2001 United~          84 F             284968955        37274.
## 10  2002 United~          83 F             287625193        38166.
## # ... with 3,135 more rows, and 1 more variable: gdp_growth <dbl>

Modelr

### model matrix
model_matrix(d_media,media_score~gdp_percapita)

## # A tibble: 3,145 x 2
##    `(Intercept)` gdp_percapita
##            <dbl>         <dbl>
##  1             1        26465.
##  2             1        27777.
##  3             1        28782.
##  4             1        30068.
##  5             1        31573.
##  6             1        32949.
##  7             1        34621.
##  8             1        36450.
##  9             1        37274.
## 10             1        38166.
## # ... with 3,135 more rows

Modelr

### model matrix
model_matrix(d_media,media_score~log(gdp_percapita))

## # A tibble: 3,145 x 2
##    `(Intercept)` `log(gdp_percapita)`
##            <dbl>                <dbl>
##  1             1                 10.2
##  2             1                 10.2
##  3             1                 10.3
##  4             1                 10.3
##  5             1                 10.4
##  6             1                 10.4
##  7             1                 10.5
##  8             1                 10.5
##  9             1                 10.5
## 10             1                 10.5
## # ... with 3,135 more rows
…
Modelr

### a simple model
mod_1<-lm(data=d_media,media_score~log(gdp_percapita))
### add predictions to the existing dataset
d_media<-d_media %>% add_predictions(mod_1)
### add residuals to the existing dataset
d_media<-d_media %>% add_residuals(mod_1)
### the basic R function predict() returns a vector

Modelr

d_media

## # A tibble: 3,145 x 9
##     year country media_score media_status population gdp_percapita
##    <dbl> <chr>         <dbl> <chr>             <dbl>         <dbl>
##  1  1993 United~          88 F             259919000        26465.
##  2  1994 United~          88 F             263126000        27777.
##  3  1995 United~          86 F             266278000        28782.
##  4  1996 United~          86 F             269394000        30068.
##  5  1997 United~          88 F             272657000        31573.
##  6  1998 United~          87 F             275854000        32949.
##  7  1999 United~          87 F             279040000        34621.
##  8  2000 United~          85 F             282162411        36450.
##  9  2001 United~          84 F             284968955        37274.
## 10  2002 United~          83 F             287625193        38166.
## # ... with 3,135 more rows, and 3 more variables: gdp_growth <dbl>,
## #   pred <dbl>, resid <dbl>
…
Modelr

### model matrix: adding another predictor
model_matrix(d_media,media_score~log(gdp_percapita)+log(population))

## # A tibble: 3,145 x 3
##    `(Intercept)` `log(gdp_percapita)` `log(population)`
##            <dbl>                <dbl>             <dbl>
##  1             1                 10.2              19.4
##  2             1                 10.2              19.4
##  3             1                 10.3              19.4
##  4             1                 10.3              19.4
##  5             1                 10.4              19.4
##  6             1                 10.4              19.4
##  7             1                 10.5              19.4
##  8             1                 10.5              19.5
##  9             1                 10.5              19.5
## 10             1                 10.5              19.5
## # ... with 3,135 more rows

Modelr

### a model with both gdp per capita and population
mod_2<-lm(data=d_media,media_score~log(gdp_percapita)+log(population))

Modelr

### gather residuals/predictions on two (or multiple) models
d_media<-d_media %>% gather_residuals(mod_1,mod_2);d_media

## # A tibble: 6,290 x 10
##    model  year country media_score media_status population gdp_percapita
##    <chr> <dbl> <chr>         <dbl> <chr>             <dbl>         <dbl>
##  1 mod_1  1993 United~          88 F             259919000        26465.
##  2 mod_1  1994 United~          88 F             263126000        27777.
##  3 mod_1  1995 United~          86 F             266278000        28782.
##  4 mod_1  1996 United~          86 F             269394000        30068.
##  5 mod_1  1997 United~          88 F             272657000        31573.
##  6 mod_1  1998 United~          87 F             275854000        32949.
##  7 mod_1  1999 United~          87 F             279040000        34621.
##  8 mod_1  2000 United~          85 F             282162411        36450.
##  9 mod_1  2001 United~          84 F             284968955        37274.
## 10 mod_1  2002 United~          83 F             287625193        38166.
## # ... with 6,280 more rows, and 3 more variables: gdp_growth <dbl>,
## #   pred <dbl>, resid <dbl>
…
many models with purrr and broom

library(purrr);library(broom)
### existing dataset: country-year; nest the existing data frame
d_media<-read_csv("media.csv")
d_media_byctry<-d_media %>% 
  group_by(country) %>% 
  nest()

many models with purrr and broom

d_media_byctry

## # A tibble: 137 x 2
## # Groups:   country [137]
##    country             data             
##    <chr>               <list>           
##  1 United States       <tibble [23 x 6]>
##  2 Canada              <tibble [23 x 6]>
##  3 Bahamas             <tibble [23 x 6]>
##  4 Dominican Republic  <tibble [23 x 6]>
##  5 Jamaica             <tibble [23 x 6]>
##  6 Trinidad and Tobago <tibble [23 x 6]>
##  7 Barbados            <tibble [23 x 6]>
##  8 Dominica            <tibble [23 x 6]>
##  9 Grenada             <tibble [23 x 6]>
## 10 Saint Lucia         <tibble [23 x 6]>
## # ... with 127 more rows

many models with purrr and broom

d_media_byctry$data[[1]]

## # A tibble: 23 x 6
##     year media_score media_status population gdp_percapita gdp_growth
##    <dbl>       <dbl> <chr>             <dbl>         <dbl>      <dbl>
##  1  1993          88 F             259919000        26465.     1.40  
##  2  1994          88 F             263126000        27777.     2.77  
##  3  1995          86 F             266278000        28782.     1.50  
##  4  1996          86 F             269394000        30068.     2.60  
##  5  1997          88 F             272657000        31573.     3.24  
##  6  1998          87 F             275854000        32949.     3.24  
##  7  1999          87 F             279040000        34621.     3.49  
##  8  2000          85 F             282162411        36450.     2.94  
##  9  2001          84 F             284968955        37274.    -0.0185
## 10  2002          83 F             287625193        38166.     0.846 
## # ... with 13 more rows
…
### fit a model to each country and seamlessly connect with the data
# a function of regression
model_country<-function(df){
  lm(data=df,media_score~log(gdp_percapita))
}
# use map from purrr package to fit a model on each country
d_media_byctry<-d_media_byctry %>% 
  mutate(model=map(data,model_country))

many models with purrr and broom

d_media_byctry

## # A tibble: 137 x 3
## # Groups:   country [137]
##    country             data              model 
##    <chr>               <list>            <list>
##  1 United States       <tibble [23 x 6]> <lm>  
##  2 Canada              <tibble [23 x 6]> <lm>  
##  3 Bahamas             <tibble [23 x 6]> <lm>  
##  4 Dominican Republic  <tibble [23 x 6]> <lm>  
##  5 Jamaica             <tibble [23 x 6]> <lm>  
##  6 Trinidad and Tobago <tibble [23 x 6]> <lm>  
##  7 Barbados            <tibble [23 x 6]> <lm>  
##  8 Dominica            <tibble [23 x 6]> <lm>  
##  9 Grenada             <tibble [23 x 6]> <lm>  
## 10 Saint Lucia         <tibble [23 x 6]> <lm>  
## # ... with 127 more rows

many models with purrr and broom

### add residuals using map2
d_media_byctry<-d_media_byctry %>% 
  mutate(resids=map2(data,model,add_residuals))
### the order of the argument matters here
# add_residuals(data, model, var = "resid")

many models with purrr and broom

d_media_byctry

## # A tibble: 137 x 4
## # Groups:   country [137]
##    country             data              model  resids           
##    <chr>               <list>            <list> <list>           
##  1 United States       <tibble [23 x 6]> <lm>   <tibble [23 x 7]>
##  2 Canada              <tibble [23 x 6]> <lm>   <tibble [23 x 7]>
##  3 Bahamas             <tibble [23 x 6]> <lm>   <tibble [23 x 7]>
##  4 Dominican Republic  <tibble [23 x 6]> <lm>   <tibble [23 x 7]>
##  5 Jamaica             <tibble [23 x 6]> <lm>   <tibble [23 x 7]>
##  6 Trinidad and Tobago <tibble [23 x 6]> <lm>   <tibble [23 x 7]>
##  7 Barbados            <tibble [23 x 6]> <lm>   <tibble [23 x 7]>
##  8 Dominica            <tibble [23 x 6]> <lm>   <tibble [23 x 7]>
##  9 Grenada             <tibble [23 x 6]> <lm>   <tibble [23 x 7]>
## 10 Saint Lucia         <tibble [23 x 6]> <lm>   <tibble [23 x 7]>
## # ... with 127 more rows

many models with purrr and broom

### use pmap: work with any number of arguments (as a list)
d_media_byctry %>% mutate(resids=pmap(list(data,model),add_residuals))

## # A tibble: 137 x 4
## # Groups:   country [137]
##    country             data              model  resids           
##    <chr>               <list>            <list> <list>           
##  1 United States       <tibble [23 x 6]> <lm>   <tibble [23 x 7]>
##  2 Canada              <tibble [23 x 6]> <lm>   <tibble [23 x 7]>
##  3 Bahamas             <tibble [23 x 6]> <lm>   <tibble [23 x 7]>
##  4 Dominican Republic  <tibble [23 x 6]> <lm>   <tibble [23 x 7]>
##  5 Jamaica             <tibble [23 x 6]> <lm>   <tibble [23 x 7]>
##  6 Trinidad and Tobago <tibble [23 x 6]> <lm>   <tibble [23 x 7]>
##  7 Barbados            <tibble [23 x 6]> <lm>   <tibble [23 x 7]>
##  8 Dominica            <tibble [23 x 6]> <lm>   <tibble [23 x 7]>
##  9 Grenada             <tibble [23 x 6]> <lm>   <tibble [23 x 7]>
## 10 Saint Lucia         <tibble [23 x 6]> <lm>   <tibble [23 x 7]>
## # ... with 127 more rows

many models with purrr and broom

### unnest residuals (for plotting or ...)
d_media_byctry %>% unnest(resids) %>% print(n=6)

## # A tibble: 3,145 x 10
## # Groups:   country [137]
##   country data  model  year media_score media_status population
##   <chr>   <lis> <lis> <dbl>       <dbl> <chr>             <dbl>
## 1 United~ <tib~ <lm>   1993          88 F             259919000
## 2 United~ <tib~ <lm>   1994          88 F             263126000
## 3 United~ <tib~ <lm>   1995          86 F             266278000
## 4 United~ <tib~ <lm>   1996          86 F             269394000
## 5 United~ <tib~ <lm>   1997          88 F             272657000
## 6 United~ <tib~ <lm>   1998          87 F             275854000
## # ... with 3,139 more rows, and 3 more variables: gdp_percapita <dbl>,
## #   gdp_growth <dbl>, resid <dbl>
…
### also work with other hypothesis testing functions 
# tt<-t.test(y~D)
# tidy(tt)

many models with purrr and broom

### broom: turn model outputs into tidy data
augment(mod_2)

## # A tibble: 3,145 x 10
##    media_score log.gdp_percapi~ log.population. .fitted .se.fit .resid
##          <dbl>            <dbl>           <dbl>   <dbl>   <dbl>  <dbl>
##  1          88             10.2            19.4    61.5   0.895   26.5
##  2          88             10.2            19.4    61.9   0.903   26.1
##  3          86             10.3            19.4    62.1   0.909   23.9
##  4          86             10.3            19.4    62.4   0.916   23.6
##  5          88             10.4            19.4    62.7   0.924   25.3
##  6          87             10.4            19.4    63.0   0.931   24.0
##  7          87             10.5            19.4    63.4   0.939   23.6
##  8          85             10.5            19.5    63.7   0.947   21.3
##  9          84             10.5            19.5    63.9   0.952   20.1
## 10          83             10.5            19.5    64.0   0.956   19.0
## # ... with 3,135 more rows, and 4 more variables: .hat <dbl>,
## #   .sigma <dbl>, .cooksd <dbl>, .std.resid <dbl>
…
many models with purrr and broom

### connect model outputs with the nested data
d_media_byctry<-d_media_byctry %>% 
  mutate(model_out=map(model,glance))

many models with purrr and broom

options(width = 60)
print(d_media_byctry,n=6)

## # A tibble: 137 x 5
## # Groups:   country [137]
##   country       data        model  resids      model_out    
##   <chr>         <list>      <list> <list>      <list>       
## 1 United States <tibble [2~ <lm>   <tibble [2~ <tibble [1 x~
## 2 Canada        <tibble [2~ <lm>   <tibble [2~ <tibble [1 x~
## 3 Bahamas       <tibble [2~ <lm>   <tibble [2~ <tibble [1 x~
## 4 Dominican Re~ <tibble [2~ <lm>   <tibble [2~ <tibble [1 x~
## 5 Jamaica       <tibble [2~ <lm>   <tibble [2~ <tibble [1 x~
## 6 Trinidad and~ <tibble [2~ <lm>   <tibble [2~ <tibble [1 x~
## # ... with 131 more rows
many models with purrr and broom

Compare the relationship between gdp per capita and media freedom in China, Vietnam, India, and singapore.

d_media_byctry<-d_media_byctry %>% 
  mutate(pred_byctry=map(model,augment)) %>% 
  unnest(pred_byctry)

many models with purrr and broom

Compare the relationship between gdp per capita and media freedom in China, Vietnam, India, and Singapore.

print(d_media_byctry,n=5)

## # A tibble: 3,145 x 14
## # Groups:   country [137]
##   country data  model resids model_out media_score
##   <chr>   <lis> <lis> <list> <list>          <dbl>
## 1 United~ <tib~ <lm>  <tibb~ <tibble ~          88
## 2 United~ <tib~ <lm>  <tibb~ <tibble ~          88
## 3 United~ <tib~ <lm>  <tibb~ <tibble ~          86
## 4 United~ <tib~ <lm>  <tibb~ <tibble ~          86
## 5 United~ <tib~ <lm>  <tibb~ <tibble ~          88
## # ... with 3,140 more rows, and 8 more variables:
## #   log.gdp_percapita. <dbl>, .fitted <dbl>, .se.fit <dbl>,
## #   .resid <dbl>, .hat <dbl>, .sigma <dbl>, .cooksd <dbl>,
## #   .std.resid <dbl>
…
